Datenanalyse mit R - #8 Visualisierung ggplot2
…
```r
library(tidyverse)
socx_data <- read_csv("_raw/SOCX_AGG_20042020191205895.csv")
```

```r
socx_data %>%
  filter(YEAR >= 2000 & YEAR <= 2015) %>%
  group_by(COUNTRY) %>% 
  summarise(mean_services = mean(family_service_total_pct_gdp),
            sd_services = sd(family_service_total_pct_gdp))
```

```
## # A tibble: 37 x 3
##    COUNTRY mean_services sd_services
##    <chr>           <dbl>       <dbl>
##  1 AUS             0.713      0.108 
##  2 AUT             0.520      0.114 
##  3 BEL             0.944      0.0932
##  4 CAN             0.204      0.0243
##  5 CHE             0.324      0.0633
##  6 CHL             0.619      0.188 
##  7 CZE             0.514      0.0413
##  8 DEU             0.845      0.157 
##  9 DNK             2.11       0.112 
## 10 ESP             0.726      0.0798
## # ... with 27 more rows
```
…
